%YAML 1.1
%TAG !u! tag:unity3d.com,2011:
--- !u!114 &11400000
MonoBehaviour:
  m_ObjectHideFlags: 0
  m_CorrespondingSourceObject: {fileID: 0}
  m_PrefabInstance: {fileID: 0}
  m_PrefabAsset: {fileID: 0}
  m_GameObject: {fileID: 0}
  m_Enabled: 1
  m_EditorHideFlags: 0
  m_Script: {fileID: 11500000, guid: 3f1ca63a91b17724bbd99c8fa67e0180, type: 3}
  m_Name: Default Material Palette
  m_EditorClassIdentifier: 
  array:
  - {fileID: 2100000, guid: c22777d6e868e4f2fb421913386b154e, type: 2}
  - {fileID: 2100000, guid: 8833440899e7a2445ba85b5e3914c63b, type: 2}
  - {fileID: 2100000, guid: 3eb4ddf63a095ea48a520c9fecd921b7, type: 2}
  - {fileID: 2100000, guid: 6f27a8c6449649e4ba26942088eb00c8, type: 2}
  - {fileID: 2100000, guid: fa52b81af29d414448cd067870af3976, type: 2}
  - {fileID: 2100000, guid: bd6bfb87e18e2e04cb7a7391221d0c97, type: 2}
  - {fileID: 0}
  - {fileID: 0}
  - {fileID: 0}
  - {fileID: 0}
